<?xml version="1.0" encoding="utf-8"?>
<!-- Generator: Adobe Illustrator 19.0.1, SVG Export Plug-In . SVG Version: 6.00 Build 0)  -->
<svg version="1.1" id="Layer_1" xmlns="http://www.w3.org/2000/svg" xmlns:xlink="http://www.w3.org/1999/xlink" x="0px" y="0px"
	 viewBox="312.6 -77.1 90.8 65.8" style="enable-background:new 312.6 -77.1 90.8 65.8;" xml:space="preserve" preserveAspectRatio="xMidYMid meet" width="100%" height="100%">
<style type="text/css">
	.st0{fill:#C8C8C8;}
	.st1{fill:#A0A0A0;}
	.st2{fill:#B4B4B4;}
	.st3{fill:#DCDCDC;}
	.st4{fill:#E6E6E6;}
	.st5{opacity:0.2;fill:#B4B4B4;enable-background:new    ;}
</style>
<rect x="315.2" y="-62.2" class="st0" width="85.5" height="50.3"/>
<rect x="312.6" y="-63.6" class="st1" width="90.8" height="2.9"/>
<rect x="335.7" y="-54.6" class="st2" width="45.3" height="38.1"/>
<rect x="333.7" y="-16.5" class="st3" width="49.4" height="5.2"/>
<rect x="335.7" y="-54.6" class="st3" width="4.5" height="40.4"/>
<rect x="345.9" y="-54.6" class="st3" width="4.5" height="40.4"/>
<rect x="356.1" y="-54.6" class="st3" width="4.5" height="40.4"/>
<rect x="366.3" y="-54.6" class="st3" width="4.5" height="40.4"/>
<rect x="376.5" y="-54.6" class="st3" width="4.5" height="40.4"/>
<rect x="358.3" y="-16.5" class="st4" width="24.8" height="5.2"/>
<rect x="312.6" y="-14.2" class="st1" width="90.8" height="2.9"/>
<rect x="317.4" y="-56.7" class="st1" width="4.3" height="9.2"/>
<rect x="323.4" y="-56.7" class="st1" width="4.3" height="9.2"/>
<rect x="329.4" y="-56.7" class="st1" width="4.3" height="9.2"/>
<rect x="317.4" y="-42.4" class="st1" width="4.3" height="9.2"/>
<rect x="323.4" y="-42.4" class="st1" width="4.3" height="9.2"/>
<rect x="329.4" y="-42.4" class="st1" width="4.3" height="9.2"/>
<rect x="317.4" y="-28.1" class="st1" width="4.3" height="9.2"/>
<rect x="323.4" y="-28.1" class="st1" width="4.3" height="9.2"/>
<rect x="329.4" y="-28.1" class="st1" width="4.3" height="9.2"/>
<rect x="383.1" y="-56.7" class="st1" width="4.3" height="9.2"/>
<rect x="389.1" y="-56.7" class="st1" width="4.3" height="9.2"/>
<rect x="395.1" y="-56.7" class="st1" width="4.3" height="9.2"/>
<rect x="383.1" y="-42.4" class="st1" width="4.3" height="9.2"/>
<rect x="389.1" y="-42.4" class="st1" width="4.3" height="9.2"/>
<rect x="395.1" y="-42.4" class="st1" width="4.3" height="9.2"/>
<rect x="383.1" y="-28.1" class="st1" width="4.3" height="9.2"/>
<rect x="389.1" y="-28.1" class="st1" width="4.3" height="9.2"/>
<rect x="395.1" y="-28.1" class="st1" width="4.3" height="9.2"/>
<rect x="332.3" y="-58.9" class="st3" width="51.4" height="4.3"/>
<rect x="330.8" y="-58.9" class="st3" width="54.4" height="1.7"/>
<polygon class="st3" points="358,-58.9 385.3,-58.9 358,-77.1 330.7,-58.9 "/>
<polygon class="st4" points="383.7,-54.6 383.7,-57.2 385.2,-57.2 385.2,-58.9 385.3,-58.9 358,-77.1 358,-54.6 "/>
<path class="st2" d="M380.8-59.4h-45.7l22.8-15.2L380.8-59.4z M338.1-60.3h39.7L358-73.4L338.1-60.3z"/>
<polygon class="st5" points="383.7,-54.6 332.3,-54.6 370.4,-16.5 383.1,-16.5 383.1,-14.2 400.7,-14.2 400.7,-37.5 "/>
</svg>
